tvmedg package
…
Running SEED 0 

$df
# A tibble: 2,774 × 23
      id    v1    v2    v3    v4    A1  A1l1    M1  M1l1    L1  L1l1    L2  L2l1
   <int> <dbl> <int> <int> <int> <dbl> <dbl> <dbl> <dbl> <dbl> <dbl> <dbl> <dbl>
 1     1  10.9     1     1     0     0     0     0     0     0     0  100   100 
 2     1  10.9     1     1     0     0     0     0     0     0     0  131.  100 
 3     1  10.9     1     1     0     0     0     0     0     0     0  125.  131.
 4     1  10.9     1     1     0     0     0     0     0     0     0  135.  125.
 5     1  10.9     1     1     0     0     0     0     0     0     0  124.  135.
 6     1  10.9     1     1     0     0     0     0     0     0     0  141.  124.
 7     1  10.9     1     1     0     0     0     0     0     0     0  119.  141.
 8     1  10.9     1     1     0     0     0     0     0     0     0  141.  119.
 9     1  10.9     1     1     0     0     0     0     0     0     0  155.  141.
10     1  10.9     1     1     0     0     0     0     0     0     0  135.  155.
# ℹ 2,764 more rows
# ℹ 10 more variables: L3 <dbl>, L3l1 <dbl>, A1l2 <dbl>, M1l2 <dbl>,
#   L1l2 <dbl>, L2l2 <dbl>, L3l2 <dbl>, Y <dbl>, j <dbl>, jj <dbl>
…
Running SEED 0 

$df
# A tibble: 2,774 × 23
      id    v1    v2    v3    v4    A1  A1l1    M1  M1l1    L1  L1l1    L2  L2l1
   <int> <dbl> <int> <int> <int> <dbl> <dbl> <dbl> <dbl> <dbl> <dbl> <dbl> <dbl>
 1     1  10.9     1     1     0     0     0     0     0     0     0  100   100 
 2     1  10.9     1     1     0     0     0     0     0     0     0  131.  100 
 3     1  10.9     1     1     0     0     0     0     0     0     0  125.  131.
 4     1  10.9     1     1     0     0     0     0     0     0     0  135.  125.
 5     1  10.9     1     1     0     0     0     0     0     0     0  124.  135.
 6     1  10.9     1     1     0     0     0     0     0     0     0  141.  124.
 7     1  10.9     1     1     0     0     0     0     0     0     0  119.  141.
 8     1  10.9     1     1     0     0     0     0     0     0     0  141.  119.
 9     1  10.9     1     1     0     0     0     0     0     0     0  155.  141.
10     1  10.9     1     1     0     0     0     0     0     0     0  135.  155.
# ℹ 2,764 more rows
# ℹ 10 more variables: L3 <dbl>, L3l1 <dbl>, A1l2 <dbl>, M1l2 <dbl>,
#   L1l2 <dbl>, L2l2 <dbl>, L3l2 <dbl>, Y <dbl>, j <dbl>, jj <dbl>
…
Degrees of Freedom: 2773 Total (i.e. Null);  2751 Residual
Null Deviance:      375.6 
Residual Deviance: 208.6    AIC: 254.6

$res_df
# A tibble: 10,000 × 26
      id     v1    v2    v3    v4    A1  A1l1    M1  M1l1    L1  L1l1    L2
   <int>  <dbl> <int> <int> <int> <dbl> <dbl> <dbl> <dbl> <dbl> <dbl> <dbl>
 1     1 10.9       1     1     0     0     0     0     0     0     0   100
 2     2  6.88      1     0     0     0     0     0     0     0     0   100
 3     3  9.79      1     0     0     0     0     0     0     0     0   100
 4     4  5.40      1     0     0     0     0     0     0     0     0   100
 5     5 12.2       0     0     1     0     0     0     0     0     0   100
 6     6  0.123     0     0     1     0     0     0     0     0     0   100
 7     7 12.7       0     0     0     0     0     0     0     0     0   100
 8     8 13.2       0     1     0     0     0     0     0     0     0   100
 9     9  6.13      0     1     0     0     0     0     0     0     0   100
10    10 13.5       0     0     1     0     0     0     0     0     0   100
# ℹ 9,990 more rows
# ℹ 14 more variables: L2l1 <dbl>, L3 <dbl>, L3l1 <dbl>, A1l2 <dbl>,
#   M1l2 <dbl>, L1l2 <dbl>, L2l2 <dbl>, L3l2 <dbl>, Y <dbl>, j <dbl>, jj <dbl>,
#   idn <int>, bid <chr>, idsim <int>
…
  for(zzz in 1:max(bb)) {
    cc <- df0[df0$idn %in% names(bb[bb %in% c(zzz:max(bb))]), ]
    cc$bid <- paste0(cc$idn, zzz)
    MC <- rbind(MC, cc)
  }
  
  MC$idsim <- 1:montecarlo
}

MC <- MC %>% as_tibble()
MC

# A tibble: 10,000 × 25
      id     v1    v2    v3    v4     A   Al1   Al2    T1  T1l1  T1l2    T2
   <int>  <dbl> <int> <int> <int> <dbl> <dbl> <dbl> <dbl> <dbl> <dbl> <dbl>
 1     1 10.9       1     1     0     0     0     0     0     0     0   100
 2     2  6.88      1     0     0     0     0     0     0     0     0   100
 3     3  9.79      1     0     0     0     0     0     0     0     0   100
 4     4  5.40      1     0     0     0     0     0     0     0     0   100
 5     5 12.2       0     0     1     0     0     0     0     0     0   100
 6     6  0.123     0     0     1     0     0     0     0     0     0   100
 7     7 12.7       0     0     0     0     0     0     0     0     0   100
 8     8 13.2       0     1     0     0     0     0     0     0     0   100
 9     9  6.13      0     1     0     0     0     0     0     0     0   100
10    10 13.5       0     0     1     0     0     0     0     0     0   100
# ℹ 9,990 more rows
# ℹ 13 more variables: T2l1 <dbl>, T2l2 <dbl>, T3 <dbl>, T3l1 <dbl>,
#   T3l2 <dbl>, M1 <dbl>, M1l1 <dbl>, M1l2 <dbl>, Y <dbl>, j <dbl>, idn <int>,
#   bid <chr>, idsim <int>
…
Running SEED 0 

Code

fitR2$res_df

# A tibble: 10,000 × 26
      id     v1    v2    v3    v4    A1  A1l1    M1  M1l1    L1  L1l1    L2
   <int>  <dbl> <int> <int> <int> <dbl> <dbl> <dbl> <dbl> <dbl> <dbl> <dbl>
 1     1 10.9       1     1     0     0     0     0     0     0     0   100
 2     2  6.88      1     0     0     0     0     0     0     0     0   100
 3     3  9.79      1     0     0     0     0     0     0     0     0   100
 4     4  5.40      1     0     0     0     0     0     0     0     0   100
 5     5 12.2       0     0     1     0     0     0     0     0     0   100
 6     6  0.123     0     0     1     0     0     0     0     0     0   100
 7     7 12.7       0     0     0     0     0     0     0     0     0   100
 8     8 13.2       0     1     0     0     0     0     0     0     0   100
 9     9  6.13      0     1     0     0     0     0     0     0     0   100
10    10 13.5       0     0     1     0     0     0     0     0     0   100
# ℹ 9,990 more rows
# ℹ 14 more variables: L2l1 <dbl>, L3 <dbl>, L3l1 <dbl>, A1l2 <dbl>,
#   M1l2 <dbl>, L1l2 <dbl>, L2l2 <dbl>, L3l2 <dbl>, Y <dbl>, j <dbl>, jj <dbl>,
#   idn <int>, bid <chr>, idsim <int>
…
