function update
…
library(tidyverse)
library(magrittr)
library(testthat)
library(splines)
library(data.table)
library(compiler)

Import data

Code

dat0 <- readRDS("../Data/tvmed_dat100_12mo.RDS")
dat0 |> as.data.frame() |> as_tibble()

# A tibble: 1,147 × 13
      id    mm    Ap    Mp    L1    L2    L3    Yp   age   sex    ow  risk
   <int> <dbl> <dbl> <dbl> <dbl> <dbl> <dbl> <dbl> <dbl> <int> <int> <int>
 1     1     1     0     0     0  100   80       0  10.9     1     1     0
 2     1     2     0     0     0  131.  88.1     0  10.9     1     1     0
 3     1     3     0     0     0  125.  97.6     0  10.9     1     1     0
 4     1     4     0     0     0  135. 112.      0  10.9     1     1     0
 5     1     5     0     0     0  124. 108.      0  10.9     1     1     0
 6     1     6     0     0     0  141. 123.      0  10.9     1     1     0
 7     1     7     0     0     0  119. 128.      0  10.9     1     1     0
 8     1     8     0     0     0  141. 114.      0  10.9     1     1     0
 9     1     9     0     0     0  155. 127.      0  10.9     1     1     0
10     1    10     0     0     0  135. 102.      0  10.9     1     1     0
# ℹ 1,137 more rows
# ℹ 1 more variable: lastid <dbl>
…
