tvmedg package
…
Code

library(tidyverse)
library(magrittr)
library(testthat)
library(splines)

Import data

Code

dat0 <- readRDS("../Data/tvmed_dat100.RDS")
dat0 %>% as.data.frame() %>% as_tibble()

# A tibble: 2,774 × 13
      id    mm    Ap    Mp    L1    L2    L3    Yp   age   sex    ow  risk
   <int> <dbl> <dbl> <dbl> <dbl> <dbl> <dbl> <dbl> <dbl> <int> <int> <int>
 1     1     1     0     0     0  100   80       0  10.9     1     1     0
 2     1     2     0     0     0  131.  88.1     0  10.9     1     1     0
 3     1     3     0     0     0  125.  97.6     0  10.9     1     1     0
 4     1     4     0     0     0  135. 112.      0  10.9     1     1     0
 5     1     5     0     0     0  124. 108.      0  10.9     1     1     0
 6     1     6     0     0     0  141. 123.      0  10.9     1     1     0
 7     1     7     0     0     0  119. 128.      0  10.9     1     1     0
 8     1     8     0     0     0  141. 114.      0  10.9     1     1     0
 9     1     9     0     0     0  155. 127.      0  10.9     1     1     0
10     1    10     0     0     0  135. 102.      0  10.9     1     1     0
# ℹ 2,764 more rows
# ℹ 1 more variable: lastid <dbl>
…
$df
# A tibble: 2,650 × 24
      id    v1    v2    v3    v4    A1  A1l1    M1  M1l1    L1  L1l1    L2  L2l1
   <int> <dbl> <int> <int> <int> <dbl> <dbl> <dbl> <dbl> <dbl> <dbl> <dbl> <dbl>
 1     2  6.88     1     0     0     0     0     0     0     0     0  100   100 
 2     2  6.88     1     0     0     0     0     0     0     0     0  121.  100 
 3     2  6.88     1     0     0     0     0     0     0     0     0  131.  121.
 4     2  6.88     1     0     0     0     0     0     0     0     0  129.  131.
 5     2  6.88     1     0     0     0     0     0     0     0     0  137.  129.
 6     2  6.88     1     0     0     0     0     0     0     0     0  154.  137.
 7     2  6.88     1     0     0     0     0     0     0     0     0  142.  154.
 8     2  6.88     1     0     0     0     0     0     0     0     0  142.  142.
 9     2  6.88     1     0     0     0     0     0     0     0     0  144.  142.
10     2  6.88     1     0     0     0     0     0     0     0     0  140.  144.
# ℹ 2,640 more rows
# ℹ 11 more variables: L3 <dbl>, L3l1 <dbl>, A1l2 <dbl>, M1l2 <dbl>,
#   L1l2 <dbl>, L2l2 <dbl>, L3l2 <dbl>, Y <dbl>, j <dbl>, bid <chr>, jj <dbl>
…
$df
# A tibble: 2,774 × 23
      id    v1    v2    v3    v4    A1  A1l1    M1  M1l1    L1  L1l1    L2  L2l1
   <int> <dbl> <int> <int> <int> <dbl> <dbl> <dbl> <dbl> <dbl> <dbl> <dbl> <dbl>
 1     1  10.9     1     1     0     0     0     0     0     0     0  100   100 
 2     1  10.9     1     1     0     0     0     0     0     0     0  131.  100 
 3     1  10.9     1     1     0     0     0     0     0     0     0  125.  131.
 4     1  10.9     1     1     0     0     0     0     0     0     0  135.  125.
 5     1  10.9     1     1     0     0     0     0     0     0     0  124.  135.
 6     1  10.9     1     1     0     0     0     0     0     0     0  141.  124.
 7     1  10.9     1     1     0     0     0     0     0     0     0  119.  141.
 8     1  10.9     1     1     0     0     0     0     0     0     0  141.  119.
 9     1  10.9     1     1     0     0     0     0     0     0     0  155.  141.
10     1  10.9     1     1     0     0     0     0     0     0     0  135.  155.
# ℹ 2,764 more rows
# ℹ 10 more variables: L3 <dbl>, L3l1 <dbl>, A1l2 <dbl>, M1l2 <dbl>,
#   L1l2 <dbl>, L2l2 <dbl>, L3l2 <dbl>, Y <dbl>, j <dbl>, jj <dbl>
…
Degrees of Freedom: 2773 Total (i.e. Null);  2751 Residual
Null Deviance:      375.6 
Residual Deviance: 208.6    AIC: 254.6

$res_df
# A tibble: 10,000 × 26
      id     v1    v2    v3    v4    A1  A1l1    M1  M1l1    L1  L1l1    L2
   <int>  <dbl> <int> <int> <int> <dbl> <dbl> <dbl> <dbl> <dbl> <dbl> <dbl>
 1     1 10.9       1     1     0     0     0     0     0     0     0   100
 2     2  6.88      1     0     0     0     0     0     0     0     0   100
 3     3  9.79      1     0     0     0     0     0     0     0     0   100
 4     4  5.40      1     0     0     0     0     0     0     0     0   100
 5     5 12.2       0     0     1     0     0     0     0     0     0   100
 6     6  0.123     0     0     1     0     0     0     0     0     0   100
 7     7 12.7       0     0     0     0     0     0     0     0     0   100
 8     8 13.2       0     1     0     0     0     0     0     0     0   100
 9     9  6.13      0     1     0     0     0     0     0     0     0   100
10    10 13.5       0     0     1     0     0     0     0     0     0   100
# ℹ 9,990 more rows
# ℹ 14 more variables: L2l1 <dbl>, L3 <dbl>, L3l1 <dbl>, A1l2 <dbl>,
#   M1l2 <dbl>, L1l2 <dbl>, L2l2 <dbl>, L3l2 <dbl>, Y <dbl>, j <dbl>, jj <dbl>,
#   idn <int>, bid <chr>, idsim <int>
…
