Update tvmedg
…
Code

library(tidyverse)
library(magrittr)
library(testthat)
library(splines)

Import data

Code

dat0 <- readRDS("../Data/tvmed_dat100_12mo.RDS")
dat0 %>% as.data.frame() %>% as_tibble()

# A tibble: 1,147 × 13
      id    mm    Ap    Mp    L1    L2    L3    Yp   age   sex    ow  risk
   <int> <dbl> <dbl> <dbl> <dbl> <dbl> <dbl> <dbl> <dbl> <int> <int> <int>
 1     1     1     0     0     0  100   80       0  10.9     1     1     0
 2     1     2     0     0     0  131.  88.1     0  10.9     1     1     0
 3     1     3     0     0     0  125.  97.6     0  10.9     1     1     0
 4     1     4     0     0     0  135. 112.      0  10.9     1     1     0
 5     1     5     0     0     0  124. 108.      0  10.9     1     1     0
 6     1     6     0     0     0  141. 123.      0  10.9     1     1     0
 7     1     7     0     0     0  119. 128.      0  10.9     1     1     0
 8     1     8     0     0     0  141. 114.      0  10.9     1     1     0
 9     1     9     0     0     0  155. 127.      0  10.9     1     1     0
10     1    10     0     0     0  135. 102.      0  10.9     1     1     0
# ℹ 1,137 more rows
# ℹ 1 more variable: lastid <dbl>
…
$df
# A tibble: 1,141 × 21
      id    v1    v2    v3    v4     A1   A1l1    M1  M1l1    L1  L1l1    L2
   <int> <dbl> <int> <int> <int>  <dbl>  <dbl> <dbl> <dbl> <dbl> <dbl> <dbl>
 1     1  10.9     1     1     0 -1.92  -1.92      0     0     0     0  80  
 2     1  10.9     1     1     0  0.274 -1.92      0     0     0     0  88.1
 3     1  10.9     1     1     0 -0.112  0.274     0     0     0     0  97.6
 4     1  10.9     1     1     0  0.603 -0.112     0     0     0     0 112. 
 5     1  10.9     1     1     0 -0.176  0.603     0     0     0     0 108. 
 6     1  10.9     1     1     0  1.05  -0.176     0     0     0     0 123. 
 7     1  10.9     1     1     0 -0.567  1.05      0     0     0     0 128. 
 8     1  10.9     1     1     0  1.05  -0.567     0     0     0     0 114. 
 9     1  10.9     1     1     0  2.04   1.05      0     0     0     0 127. 
10     1  10.9     1     1     0  0.601  2.04      0     0     0     0 102. 
# ℹ 1,131 more rows
# ℹ 9 more variables: L2l1 <dbl>, A1l2 <dbl>, M1l2 <dbl>, L1l2 <dbl>,
#   L2l2 <dbl>, Y <dbl>, j <dbl>, bid <chr>, jj <dbl>
…
$df
# A tibble: 2,852 × 21
      id    v1    v2    v3    v4     A1   A1l1    M1  M1l1    L1  L1l1    L2
   <int> <dbl> <int> <int> <int>  <dbl>  <dbl> <dbl> <dbl> <dbl> <dbl> <dbl>
 1     1  10.9     1     1     0 -1.83  -1.83      0     0     0     0  80  
 2     1  10.9     1     1     0  0.199 -1.83      0     0     0     0  88.1
 3     1  10.9     1     1     0 -0.158  0.199     0     0     0     0  97.6
 4     1  10.9     1     1     0  0.504 -0.158     0     0     0     0 112. 
 5     1  10.9     1     1     0 -0.218  0.504     0     0     0     0 108. 
 6     1  10.9     1     1     0  0.916 -0.218     0     0     0     0 123. 
 7     1  10.9     1     1     0 -0.580  0.916     0     0     0     0 128. 
 8     1  10.9     1     1     0  0.914 -0.580     0     0     0     0 114. 
 9     1  10.9     1     1     0  1.83   0.914     0     0     0     0 127. 
10     1  10.9     1     1     0  0.502  1.83      0     0     0     0 102. 
# ℹ 2,842 more rows
# ℹ 9 more variables: L2l1 <dbl>, A1l2 <dbl>, M1l2 <dbl>, L1l2 <dbl>,
#   L2l2 <dbl>, Y <dbl>, j <dbl>, bid <chr>, jj <dbl>
…
$df
# A tibble: 1,163 × 21
      id    v1    v2    v3    v4     A1   A1l1    M1  M1l1    L1  L1l1    L2
   <int> <dbl> <int> <int> <int>  <dbl>  <dbl> <dbl> <dbl> <dbl> <dbl> <dbl>
 1     2  9.28     0     0     1 -1.92  -1.92      0     0     0     0  80  
 2     2  9.28     0     0     1 -0.317 -1.92      0     0     0     0  99.8
 3     2  9.28     0     0     1 -0.991 -0.317     0     0     0     0  99.8
 4     2  9.28     0     0     1  0.525 -0.991     0     0     0     0 101. 
 5     2  9.28     0     0     1 -1.29   0.525     0     0     0     0 104. 
 6     2  9.28     0     0     1  0.201 -1.29      0     0     0     0 104. 
 7     2  9.28     0     0     1 -0.348  0.201     1     0     0     0  84.9
 8     2  9.28     0     0     1 -1.47  -0.348     1     1     0     0  82.6
 9     3  7.96     0     1     0 -1.92  -1.92      0     0     0     0  80  
10     3  7.96     0     1     0  0.439 -1.92      0     0     0     0 102. 
# ℹ 1,153 more rows
# ℹ 9 more variables: L2l1 <dbl>, A1l2 <dbl>, M1l2 <dbl>, L1l2 <dbl>,
#   L2l2 <dbl>, Y <dbl>, j <dbl>, bid <chr>, jj <dbl>
…
Degrees of Freedom: 1162 Total (i.e. Null);  1146 Residual
Null Deviance:      124.4 
Residual Deviance: 1.457e-07    AIC: 34

$norev_var
[1] "M1"

$am
[1] 0

$res_df
# A tibble: 10,000 × 23
      id    v1    v2    v3    v4    A1  A1l1    M1  M1l1    L1  L1l1    L2  L2l1
   <int> <dbl> <int> <int> <int> <dbl> <dbl> <dbl> <dbl> <dbl> <dbl> <dbl> <dbl>
 1     2  9.28     0     0     1 -1.92 -1.92     0     0     0     0    80    80
 2     3  7.96     0     1     0 -1.92 -1.92     0     0     0     0    80    80
 3     4 15.7      1     1     0 -1.92 -1.92     0     0     0     0    80    80
 4     6 11.7      0     0     0 -1.92 -1.92     0     0     0     0    80    80
 5     8 10.6      0     0     0 -1.92 -1.92     0     0     0     0    80    80
 6    10 15.1      1     0     0 -1.92 -1.92     0     0     0     0    80    80
 7    11 11.0      0     0     0 -1.92 -1.92     0     0     0     0    80    80
 8    13 11.6      0     0     0 -1.92 -1.92     0     0     0     0    80    80
 9    15 12.0      0     1     0 -1.92 -1.92     0     0     0     0    80    80
10    16  1.25     0     1     0 -1.92 -1.92     0     0     0     0    80    80
# ℹ 9,990 more rows
# ℹ 10 more variables: A1l2 <dbl>, M1l2 <dbl>, L1l2 <dbl>, L2l2 <dbl>, Y <dbl>,
#   j <dbl>, bid <chr>, jj <dbl>, idn <int>, idsim <int>
…
